\relax 
\providecommand\hyper@newdestlabel[2]{}
\bibcite{SI-SR}{1}
\bibcite{SI-SR-1}{2}
\bibcite{SI-SR-2}{3}
\bibcite{SI-SR-3}{4}
\bibcite{SI-SR-4}{5}
\bibcite{SI-SR-5}{6}
\bibcite{Custom-5-Geenral-Apps}{7}
\bibcite{Custom-1-Telecommunications}{8}
\bibcite{Custom-2-Traffic}{9}
\bibcite{Custom-3-Military}{10}
\bibcite{Cutsom-4-PSO-Apps}{11}
\bibcite{Custom-6-FeaturesOfSwarm}{12}
\bibcite{SI-SR-7}{13}
\@writefile{toc}{\contentsline {chapter}{Bibliography}{84}{appendix.517}}
\bibcite{SI-SR-8}{14}
\bibcite{SI-SR-9}{15}
\bibcite{SI-SR-10}{16}
\bibcite{SI-SR-11}{17}
\bibcite{SI-SR-12}{18}
\bibcite{SI-SR-13}{19}
\bibcite{I-SWARM-4}{20}
\bibcite{I-SWARM-1}{21}
\bibcite{I-SAWRM-5}{22}
\bibcite{I-SAWRM-17}{23}
\bibcite{I-SAWRM-18}{24}
\bibcite{I-SAWRM-16}{25}
\bibcite{I-SAWRM-13}{26}
\bibcite{I-SAWRM-10}{27}
\bibcite{I-SAWRM-11}{28}
\bibcite{I-SAWRM-22}{29}
\bibcite{I-SAWRM-19}{30}
\bibcite{I-SAWRM-20}{31}
\bibcite{I-SAWRM-14}{32}
\bibcite{I-SAWRM-15}{33}
\bibcite{I-SAWRM-12}{34}
\bibcite{SI-SR-14}{35}
\bibcite{SI-SR-15}{36}
\bibcite{SI-SR-16}{37}
\bibcite{SI-SR-17}{38}
\bibcite{robot-1}{39}
\bibcite{control-1}{40}
\bibcite{control-2}{41}
\bibcite{cv-1}{42}
\bibcite{cv-2}{43}
\bibcite{cv-3}{44}
\bibcite{cv-4}{45}
\bibcite{cv-5}{46}
\bibcite{cv-6}{47}
\bibcite{cv-7}{48}
\bibcite{cv-8}{49}
\bibcite{cv-9}{50}
\bibcite{cv-10}{51}
\bibcite{cv-11}{52}
\bibcite{comm-1}{53}
\bibcite{comm-2}{54}
\bibcite{comm-3}{55}
\bibcite{src-1}{56}
\@setckpt{biblography}{
\setcounter{page}{89}
\setcounter{equation}{0}
\setcounter{enumi}{3}
\setcounter{enumii}{0}
\setcounter{enumiii}{0}
\setcounter{enumiv}{56}
\setcounter{footnote}{0}
\setcounter{mpfootnote}{0}
\setcounter{part}{0}
\setcounter{chapter}{6}
\setcounter{section}{0}
\setcounter{subsection}{0}
\setcounter{subsubsection}{0}
\setcounter{paragraph}{0}
\setcounter{subparagraph}{0}
\setcounter{figure}{0}
\setcounter{table}{0}
\setcounter{LT@tables}{0}
\setcounter{LT@chunks}{0}
\setcounter{ContinuedFloat}{0}
\setcounter{float@type}{8}
\setcounter{lstnumber}{28}
\setcounter{subfigure}{0}
\setcounter{subtable}{0}
\setcounter{AM@survey}{0}
\setcounter{Item}{5}
\setcounter{Hfootnote}{2}
\setcounter{bookmark@seq@number}{86}
\setcounter{lstlisting}{0}
\setcounter{section@level}{1}
}
