\relax 
\providecommand\HyperFirstAtBeginDocument{\AtBeginDocument}
\HyperFirstAtBeginDocument{\ifx\hyper@anchor\@undefined
\global\let\oldcontentsline\contentsline
\gdef\contentsline#1#2#3#4{\oldcontentsline{#1}{#2}{#3}}
\global\let\oldnewlabel\newlabel
\gdef\newlabel#1#2{\newlabelxx{#1}#2}
\gdef\newlabelxx#1#2#3#4#5#6{\oldnewlabel{#1}{{#2}{#3}}}
\AtEndDocument{\ifx\hyper@anchor\@undefined
\let\contentsline\oldcontentsline
\let\newlabel\oldnewlabel
\fi}
\fi}
\global\let\hyper@last\relax 
\gdef\HyperFirstAtBeginDocument#1{#1}
\providecommand\HyField@AuxAddToFields[1]{}
\providecommand\HyField@AuxAddToCoFields[2]{}
\babel@aux{english}{}
\@writefile{toc}{\contentsline {chapter}{Abstract}{i}{section*.1}}
\@writefile{toc}{\contentsline {chapter}{Acknowledgements}{ii}{section*.4}}
\@writefile{toc}{\contentsline {chapter}{Contents}{iii}{chapter*.5}}
\@writefile{toc}{\contentsline {chapter}{List of Figures}{vi}{chapter*.6}}
\@writefile{toc}{\contentsline {chapter}{List of Tables}{viii}{chapter*.7}}
\@input{Chapters/ch-introduction.aux}
\@input{Chapters/ch-rawbot.aux}
\@input{Chapters/ch-control.aux}
\@input{Chapters/ch-cv.aux}
\@input{Chapters/ch-comm.aux}
\@input{Chapters/ch-integ.aux}
\@input{Appendices/AppendixA.aux}
\@input{Appendices/AppendixB.aux}
\@input{Appendices/AppendixC.aux}
\@input{Appendices/AppendixD.aux}
\@input{Appendices/AppendixE.aux}
\@input{Appendices/AppendixF.aux}
\@input{biblography.aux}
