\BOOKMARK [0][-]{section*.1}{\376\377\000A\000b\000s\000t\000r\000a\000c\000t}{}% 1
\BOOKMARK [0][-]{section*.4}{\376\377\000A\000c\000k\000n\000o\000w\000l\000e\000d\000g\000e\000m\000e\000n\000t\000s}{}% 2
\BOOKMARK [0][-]{chapter*.5}{\376\377\000C\000o\000n\000t\000e\000n\000t\000s}{}% 3
\BOOKMARK [0][-]{chapter*.6}{\376\377\000L\000i\000s\000t\000\040\000o\000f\000\040\000F\000i\000g\000u\000r\000e\000s}{}% 4
\BOOKMARK [0][-]{chapter*.7}{\376\377\000L\000i\000s\000t\000\040\000o\000f\000\040\000T\000a\000b\000l\000e\000s}{}% 5
\BOOKMARK [0][-]{chapter.8}{\376\377\000I\000n\000t\000r\000o\000d\000u\000c\000t\000i\000o\000n}{}% 6
\BOOKMARK [1][-]{section.9}{\376\377\000S\000t\000a\000t\000e\000\040\000o\000f\000\040\000t\000h\000e\000\040\000a\000r\000t}{chapter.8}% 7
\BOOKMARK [1][-]{section.10}{\376\377\000S\000w\000a\000r\000m\000\040\000I\000n\000t\000e\000l\000l\000i\000g\000e\000n\000c\000e}{chapter.8}% 8
\BOOKMARK [2][-]{subsection.11}{\376\377\000P\000a\000r\000t\000i\000c\000l\000e\000\040\000S\000w\000a\000r\000m\000\040\000O\000p\000t\000i\000m\000i\000z\000a\000t\000i\000o\000n}{section.10}% 9
\BOOKMARK [2][-]{subsection.12}{\376\377\000A\000n\000t\000\040\000C\000o\000l\000o\000n\000y\000\040\000O\000p\000t\000i\000m\000i\000z\000a\000t\000i\000o\000n}{section.10}% 10
\BOOKMARK [2][-]{subsection.13}{\376\377\000S\000w\000a\000r\000m\000\040\000I\000n\000t\000e\000l\000l\000i\000g\000e\000n\000c\000e\000\040\000A\000p\000p\000l\000i\000c\000a\000t\000i\000o\000n\000s}{section.10}% 11
\BOOKMARK [1][-]{section.14}{\376\377\000S\000w\000a\000r\000m\000\040\000R\000o\000b\000o\000t\000i\000c\000s}{chapter.8}% 12
\BOOKMARK [2][-]{subsection.15}{\376\377\000C\000r\000i\000t\000e\000r\000i\000a\000\040\000f\000o\000r\000\040\000S\000w\000a\000r\000m\000\040\000R\000o\000b\000o\000t\000i\000c\000s}{section.14}% 13
\BOOKMARK [2][-]{subsection.16}{\376\377\000A\000d\000v\000a\000n\000t\000a\000g\000e\000s\000\040\000t\000o\000\040\000C\000l\000a\000s\000s\000i\000c\000a\000l\000\040\000A\000p\000p\000r\000o\000a\000c\000h\000e\000s}{section.14}% 14
\BOOKMARK [2][-]{subsection.17}{\376\377\000S\000w\000a\000r\000m\000\040\000R\000o\000b\000o\000t\000i\000c\000s\000\040\000A\000p\000p\000l\000i\000c\000a\000t\000i\000o\000n\000s}{section.14}% 15
\BOOKMARK [1][-]{section.18}{\376\377\000I\000n\000t\000r\000o\000d\000u\000c\000t\000i\000o\000n\000\040\000t\000o\000\040\000S\000w\000a\000r\000m}{chapter.8}% 16
\BOOKMARK [1][-]{section.19}{\376\377\000T\000h\000e\000s\000i\000s\000\040\000O\000r\000g\000a\000n\000i\000z\000a\000t\000i\000o\000n}{chapter.8}% 17
\BOOKMARK [0][-]{chapter.20}{\376\377\000R\000o\000b\000o\000t}{}% 18
\BOOKMARK [1][-]{section.21}{\376\377\000M\000o\000t\000i\000v\000a\000t\000i\000o\000n}{chapter.20}% 19
\BOOKMARK [1][-]{section.24}{\376\377\000H\000a\000r\000d\000w\000a\000r\000e}{chapter.20}% 20
\BOOKMARK [2][-]{subsection.27}{\376\377\000F\000r\000a\000m\000e}{section.24}% 21
\BOOKMARK [2][-]{subsection.28}{\376\377\000P\000C\000B\000\040\000D\000e\000s\000i\000g\000n\000\040\000a\000n\000d\000\040\000C\000o\000m\000p\000o\000n\000e\000n\000t\000s}{section.24}% 22
\BOOKMARK [2][-]{subsection.32}{\376\377\000B\000a\000t\000t\000e\000r\000i\000e\000s}{section.24}% 23
\BOOKMARK [2][-]{subsection.33}{\376\377\000P\000o\000s\000i\000t\000i\000o\000n\000i\000n\000g\000\040\000S\000y\000s\000t\000e\000m}{section.24}% 24
\BOOKMARK [2][-]{subsection.34}{\376\377\000S\000e\000n\000s\000o\000r\000s}{section.24}% 25
\BOOKMARK [3][-]{subsubsection.35}{\376\377\000U\000l\000t\000r\000a\000s\000o\000n\000i\000c\000\040\000S\000e\000n\000s\000o\000r}{subsection.34}% 26
\BOOKMARK [1][-]{section.36}{\376\377\000S\000o\000f\000t\000w\000a\000r\000e}{chapter.20}% 27
\BOOKMARK [0][-]{chapter.100}{\376\377\000C\000o\000n\000t\000r\000o\000l\000\040\000S\000t\000r\000a\000t\000e\000g\000y}{}% 28
\BOOKMARK [1][-]{section.101}{\376\377\000M\000o\000t\000i\000v\000a\000t\000i\000o\000n}{chapter.100}% 29
\BOOKMARK [1][-]{section.104}{\376\377\000T\000r\000a\000c\000k\000i\000n\000g}{chapter.100}% 30
\BOOKMARK [2][-]{subsection.105}{\376\377\000I\000n\000t\000r\000o}{section.104}% 31
\BOOKMARK [2][-]{subsection.109}{\376\377\000T\000r\000a\000c\000k\000i\000n\000g\000\040\000m\000e\000t\000h\000o\000d\000s}{section.104}% 32
\BOOKMARK [3][-]{subsubsection.110}{\376\377\000D\000e\000a\000d\000\040\000r\000e\000c\000k\000o\000n\000i\000n\000g}{subsection.109}% 33
\BOOKMARK [3][-]{subsubsection.112}{\376\377\000B\000r\000e\000s\000e\000n\000h\000a\000m\040\031\000s\000\040\000l\000i\000n\000e\000\040\000a\000l\000g\000o\000r\000i\000t\000h\000m}{subsection.109}% 34
\BOOKMARK [1][-]{section.116}{\376\377\000L\000e\000a\000d\000e\000r\000s\000h\000i\000p\000\040\000S\000e\000l\000e\000c\000t\000i\000o\000n}{chapter.100}% 35
\BOOKMARK [0][-]{chapter.144}{\376\377\000O\000p\000e\000n\000C\000V\000\040\000m\000o\000d\000u\000l\000e\000\040\000a\000n\000d\000\040\000D\000e\000t\000e\000c\000t\000i\000o\000n\000\040\000A\000l\000g\000o\000r\000i\000t\000h\000m\000s}{}% 36
\BOOKMARK [1][-]{section.145}{\376\377\000M\000o\000t\000i\000v\000a\000t\000i\000o\000n}{chapter.144}% 37
\BOOKMARK [1][-]{section.146}{\376\377\000S\000y\000s\000t\000e\000m\000\040\000d\000e\000s\000i\000g\000n}{chapter.144}% 38
\BOOKMARK [1][-]{section.148}{\376\377\000C\000o\000m\000p\000u\000t\000e\000r\000\040\000V\000i\000s\000i\000o\000n\000\040\000S\000t\000e\000p\000s}{chapter.144}% 39
\BOOKMARK [1][-]{section.150}{\376\377\000H\000a\000r\000d\000w\000a\000r\000e}{chapter.144}% 40
\BOOKMARK [2][-]{subsection.151}{\376\377\000C\000h\000o\000s\000e\000n\000\040\000H\000a\000r\000d\000w\000a\000r\000e}{section.150}% 41
\BOOKMARK [2][-]{subsection.154}{\376\377\000H\000a\000r\000d\000w\000a\000r\000e\000\040\000S\000p\000e\000c\000i\000f\000i\000c\000a\000t\000i\000o\000n\000s}{section.150}% 42
\BOOKMARK [1][-]{section.157}{\376\377\000D\000e\000t\000e\000c\000t\000i\000o\000n\000\040\000A\000l\000g\000o\000r\000i\000t\000h\000m\000s}{chapter.144}% 43
\BOOKMARK [2][-]{subsection.158}{\376\377\000T\000e\000m\000p\000l\000a\000t\000e\000\040\000M\000a\000t\000c\000h\000i\000n\000g}{section.157}% 44
\BOOKMARK [2][-]{subsection.163}{\376\377\000C\000o\000n\000t\000o\000u\000r\000s\000\040\000D\000e\000t\000e\000c\000t\000i\000o\000n}{section.157}% 45
\BOOKMARK [2][-]{subsection.164}{\376\377\000H\000a\000a\000r\000-\000C\000a\000s\000c\000a\000d\000e}{section.157}% 46
\BOOKMARK [2][-]{subsection.166}{\376\377\000C\000o\000l\000o\000r\000-\000b\000a\000s\000e\000d\000\040\000D\000e\000t\000e\000c\000t\000i\000o\000n}{section.157}% 47
\BOOKMARK [2][-]{subsection.170}{\376\377\000C\000o\000n\000v\000o\000l\000u\000t\000i\000o\000n\000a\000l\000\040\000N\000e\000u\000r\000a\000l\000\040\000N\000e\000t\000w\000o\000r\000k\000\040\000\050\000C\000N\000N\000\051}{section.157}% 48
\BOOKMARK [2][-]{subsection.172}{\376\377\000O\000n\000e\000\040\000S\000h\000o\000t\000\040\000L\000e\000a\000r\000n\000i\000n\000g}{section.157}% 49
\BOOKMARK [1][-]{section.173}{\376\377\000U\000s\000i\000n\000g\000\040\000C\000a\000m\000e\000r\000a\000\040\000a\000s\000\040\000a\000\040\000P\000o\000s\000i\000t\000i\000o\000n\000i\000n\000g\000\040\000S\000y\000s\000t\000e\000m}{chapter.144}% 50
\BOOKMARK [0][-]{chapter.292}{\376\377\000C\000o\000m\000m\000u\000n\000i\000c\000a\000t\000i\000o\000n\000\040\000M\000o\000d\000u\000l\000e}{}% 51
\BOOKMARK [1][-]{section.293}{\376\377\000M\000o\000t\000i\000v\000a\000t\000i\000o\000n}{chapter.292}% 52
\BOOKMARK [1][-]{section.294}{\376\377\000H\000a\000r\000d\000w\000a\000r\000e}{chapter.292}% 53
\BOOKMARK [2][-]{subsection.295}{\376\377\000R\000o\000b\000o\000t\000s}{section.294}% 54
\BOOKMARK [2][-]{subsection.296}{\376\377\000C\000a\000m\000e\000r\000a}{section.294}% 55
\BOOKMARK [1][-]{section.299}{\376\377\000I\000n\000t\000e\000g\000r\000a\000t\000i\000o\000n\000\040\000A\000l\000l\000\040\000C\000o\000m\000m\000u\000n\000i\000c\000a\000t\000i\000o\000n}{chapter.292}% 56
\BOOKMARK [2][-]{subsection.300}{\376\377\000U\000s\000i\000n\000g\000\040\000N\000e\000t\000w\000o\000r\000k\000\040\000L\000i\000b\000r\000a\000r\000y}{section.299}% 57
\BOOKMARK [2][-]{subsection.303}{\376\377\000U\000s\000i\000n\000g\000\040\000C\000u\000s\000t\000o\000m\000i\000z\000e\000d\000\040\000N\000e\000t\000w\000o\000r\000k}{section.299}% 58
\BOOKMARK [1][-]{section.307}{\376\377\000C\000o\000m\000m\000u\000n\000i\000c\000a\000t\000i\000o\000n\000\040\000M\000e\000t\000h\000o\000d\000s}{chapter.292}% 59
\BOOKMARK [2][-]{subsection.308}{\376\377\000P\000i\000p\000e\000s}{section.307}% 60
\BOOKMARK [2][-]{subsection.311}{\376\377\000N\000e\000t\000w\000o\000r\000k}{section.307}% 61
\BOOKMARK [3][-]{subsubsection.312}{\376\377\000N\000e\000t\000w\000o\000r\000k\000\040\000L\000i\000b\000r\000a\000r\000y}{subsection.311}% 62
\BOOKMARK [3][-]{subsubsection.388}{\376\377\000C\000u\000s\000t\000o\000m\000i\000z\000e\000d\000\040\000N\000e\000t\000w\000o\000r\000k}{subsection.311}% 63
\BOOKMARK [0][-]{chapter.480}{\376\377\000I\000n\000t\000e\000g\000r\000a\000t\000i\000o\000n\000\040\000T\000a\000s\000k}{}% 64
\BOOKMARK [1][-]{section.481}{\376\377\000M\000o\000t\000i\000v\000a\000t\000i\000o\000n}{chapter.480}% 65
\BOOKMARK [1][-]{section.483}{\376\377\000M\000a\000i\000n\000\040\000T\000a\000s\000k\000\040\000"\000F\000o\000r\000m\000a\000t\000i\000o\000n\000"}{chapter.480}% 66
\BOOKMARK [2][-]{subsection.484}{\376\377\000C\000o\000n\000t\000r\000o\000l\000\040\000m\000o\000d\000u\000l\000e}{section.483}% 67
\BOOKMARK [2][-]{subsection.485}{\376\377\000C\000V\000\040\000m\000o\000d\000u\000l\000e}{section.483}% 68
\BOOKMARK [2][-]{subsection.486}{\376\377\000C\000o\000m\000m\000u\000n\000i\000c\000a\000t\000i\000o\000n\000\040\000m\000o\000d\000u\000l\000e}{section.483}% 69
\BOOKMARK [0][-]{appendix.487}{\376\377\000S\000e\000n\000s\000o\000r\000s}{}% 70
\BOOKMARK [1][-]{section.488}{\376\377\000U\000l\000t\000r\000a\000s\000o\000n\000i\000c\000\040\000S\000e\000n\000s\000o\000r}{appendix.487}% 71
\BOOKMARK [2][-]{subsection.490}{\376\377\000S\000p\000e\000c\000i\000f\000i\000c\000a\000t\000i\000o\000n\000s\000\040\000a\000n\000d\000\040\000D\000e\000s\000c\000r\000i\000p\000t\000i\000o\000n}{section.488}% 72
\BOOKMARK [2][-]{subsection.493}{\376\377\000T\000h\000e\000o\000r\000y\000\040\000o\000f\000\040\000O\000p\000e\000r\000a\000t\000i\000o\000n}{section.488}% 73
\BOOKMARK [2][-]{subsection.495}{\376\377\000P\000i\000n\000s\000\040\000C\000o\000n\000f\000i\000g\000u\000r\000a\000t\000i\000o\000n}{section.488}% 74
\BOOKMARK [0][-]{appendix.497}{\376\377\000R\000F\000\040\000C\000o\000m\000m\000u\000n\000i\000c\000a\000t\000i\000o\000n\000\040\000M\000o\000d\000u\000l\000e}{}% 75
\BOOKMARK [1][-]{section.499}{\376\377\000S\000p\000e\000c\000i\000f\000i\000c\000a\000t\000i\000o\000n\000s\000\040\000a\000n\000d\000\040\000D\000e\000s\000c\000r\000i\000p\000t\000i\000o\000n}{appendix.497}% 76
\BOOKMARK [1][-]{section.500}{\376\377\000T\000h\000e\000o\000r\000y\000\040\000o\000f\000\040\000O\000p\000e\000r\000a\000t\000i\000o\000n}{appendix.497}% 77
\BOOKMARK [1][-]{section.502}{\376\377\000P\000i\000n\000s\000\040\000C\000o\000n\000f\000i\000g\000u\000r\000a\000t\000i\000o\000n}{appendix.497}% 78
\BOOKMARK [0][-]{appendix.504}{\376\377\000P\000o\000w\000e\000r\000\040\000T\000r\000a\000i\000n}{}% 79
\BOOKMARK [0][-]{appendix.505}{\376\377\000M\000C\000U\000:\000\040\000A\000T\000m\000e\000g\000a\0003\0002\0008\000P}{}% 80
\BOOKMARK [1][-]{section.507}{\376\377\000C\000o\000n\000f\000i\000g\000u\000r\000a\000t\000i\000o\000n\000\040\000S\000u\000m\000m\000a\000r\000y}{appendix.505}% 81
\BOOKMARK [1][-]{section.509}{\376\377\000B\000l\000o\000c\000k\000\040\000D\000i\000a\000g\000r\000a\000m}{appendix.505}% 82
\BOOKMARK [1][-]{section.511}{\376\377\000P\000i\000n\000-\000o\000u\000t}{appendix.505}% 83
\BOOKMARK [0][-]{appendix.514}{\376\377\000R\000a\000s\000p\000b\000e\000r\000r\000y\000\040\000P\000i\0003\000\040\000M\000o\000d\000e\000l\000\040\000B\000+\000\040\000\046\000\040\000A\000r\000d\000u\000c\000a\000m}{}% 84
\BOOKMARK [0][-]{appendix.517}{\376\377\000S\000o\000u\000r\000c\000e\000\040\000C\000o\000d\000e\000s}{}% 85
\BOOKMARK [0][-]{appendix.517}{\376\377\000B\000i\000b\000l\000i\000o\000g\000r\000a\000p\000h\000y}{}% 86
