\relax 
\providecommand\hyper@newdestlabel[2]{}
\citation{comm-1}
\@writefile{toc}{\contentsline {chapter}{\numberline {5}Communication Module}{47}{chapter.292}}
\@writefile{lof}{\addvspace {10\p@ }}
\@writefile{lot}{\addvspace {10\p@ }}
\newlabel{ch-com}{{5}{47}{Communication Module}{chapter.292}{}}
\@writefile{toc}{\contentsline {section}{\numberline {5.1}Motivation}{47}{section.293}}
\@writefile{toc}{\contentsline {section}{\numberline {5.2}Hardware}{47}{section.294}}
\@writefile{toc}{\contentsline {subsection}{\numberline {5.2.1}Robots}{49}{subsection.295}}
\@writefile{toc}{\contentsline {subsection}{\numberline {5.2.2}Camera}{50}{subsection.296}}
\@writefile{lof}{\contentsline {figure}{\numberline {5.1}{\ignorespaces RF to camera connection\relax }}{50}{figure.caption.297}}
\newlabel{rf-camera-connection}{{5.1}{50}{RF to camera connection\relax }{figure.caption.297}{}}
\@writefile{lot}{\contentsline {table}{\numberline {5.1}{\ignorespaces Raspberry/RF pins connection\relax }}{50}{table.caption.298}}
\@writefile{toc}{\contentsline {section}{\numberline {5.3}Integration All Communication}{51}{section.299}}
\@writefile{toc}{\contentsline {subsection}{\numberline {5.3.1}Using Network Library}{51}{subsection.300}}
\@writefile{lof}{\contentsline {figure}{\numberline {5.2}{\ignorespaces Network Receiver\relax }}{51}{figure.caption.301}}
\newlabel{comm-net-transmitter}{{5.2}{51}{Network Receiver\relax }{figure.caption.301}{}}
\@writefile{lof}{\contentsline {figure}{\numberline {5.3}{\ignorespaces Network Transmitter\relax }}{51}{figure.caption.302}}
\newlabel{comm-net-receiver}{{5.3}{51}{Network Transmitter\relax }{figure.caption.302}{}}
\citation{comm-2}
\@writefile{toc}{\contentsline {subsection}{\numberline {5.3.2}Using Customized Network}{52}{subsection.303}}
\@writefile{lof}{\contentsline {figure}{\numberline {5.4}{\ignorespaces Robots requesting the position from the RPi "Camera"\relax }}{52}{figure.caption.304}}
\newlabel{comm-rob-req-pos}{{5.4}{52}{Robots requesting the position from the RPi "Camera"\relax }{figure.caption.304}{}}
\@writefile{lof}{\contentsline {figure}{\numberline {5.5}{\ignorespaces Camera receiving the request, then sending the position\relax }}{52}{figure.caption.305}}
\newlabel{comm-cam-req-pos}{{5.5}{52}{Camera receiving the request, then sending the position\relax }{figure.caption.305}{}}
\@writefile{lof}{\contentsline {figure}{\numberline {5.6}{\ignorespaces Communication between the leader and the robots\relax }}{52}{figure.caption.306}}
\newlabel{comm-leader-robots}{{5.6}{52}{Communication between the leader and the robots\relax }{figure.caption.306}{}}
\@writefile{toc}{\contentsline {section}{\numberline {5.4}Communication Methods}{53}{section.307}}
\@writefile{toc}{\contentsline {subsection}{\numberline {5.4.1}Pipes}{53}{subsection.308}}
\@writefile{lof}{\contentsline {figure}{\numberline {5.7}{\ignorespaces Pipes connection\relax }}{53}{figure.caption.309}}
\newlabel{comm-pipes1}{{5.7}{53}{Pipes connection\relax }{figure.caption.309}{}}
\citation{comm-3}
\@writefile{lof}{\contentsline {figure}{\numberline {5.8}{\ignorespaces Pipes architecture\relax }}{54}{figure.caption.310}}
\newlabel{comm-pipes2}{{5.8}{54}{Pipes architecture\relax }{figure.caption.310}{}}
\@writefile{toc}{\contentsline {subsection}{\numberline {5.4.2}Network}{54}{subsection.311}}
\@writefile{toc}{\contentsline {subsubsection}{\numberline {5.4.2.1}Network Library}{54}{subsubsection.312}}
\@writefile{lof}{\contentsline {figure}{\numberline {5.9}{\ignorespaces Addressing prototype\relax }}{58}{figure.caption.386}}
\newlabel{comm-addressing}{{5.9}{58}{Addressing prototype\relax }{figure.caption.386}{}}
\@writefile{lof}{\contentsline {figure}{\numberline {5.10}{\ignorespaces Pyramid formation task\relax }}{59}{figure.caption.387}}
\newlabel{pyramid-task}{{5.10}{59}{Pyramid formation task\relax }{figure.caption.387}{}}
\@writefile{toc}{\contentsline {subsubsection}{\numberline {5.4.2.2}Customized Network}{59}{subsubsection.388}}
\@setckpt{Chapters/ch-comm}{
\setcounter{page}{64}
\setcounter{equation}{0}
\setcounter{enumi}{3}
\setcounter{enumii}{0}
\setcounter{enumiii}{0}
\setcounter{enumiv}{0}
\setcounter{footnote}{0}
\setcounter{mpfootnote}{0}
\setcounter{part}{0}
\setcounter{chapter}{5}
\setcounter{section}{4}
\setcounter{subsection}{2}
\setcounter{subsubsection}{2}
\setcounter{paragraph}{0}
\setcounter{subparagraph}{0}
\setcounter{figure}{10}
\setcounter{table}{1}
\setcounter{LT@tables}{0}
\setcounter{LT@chunks}{0}
\setcounter{ContinuedFloat}{0}
\setcounter{float@type}{8}
\setcounter{lstnumber}{28}
\setcounter{subfigure}{0}
\setcounter{subtable}{0}
\setcounter{AM@survey}{0}
\setcounter{Item}{5}
\setcounter{Hfootnote}{2}
\setcounter{bookmark@seq@number}{63}
\setcounter{lstlisting}{0}
\setcounter{section@level}{3}
}
