\relax 
\providecommand\hyper@newdestlabel[2]{}
\citation{cv-1}
\citation{cv-2}
\@writefile{toc}{\contentsline {chapter}{\numberline {4}OpenCV module and Detection Algorithms}{30}{chapter.144}}
\@writefile{lof}{\addvspace {10\p@ }}
\@writefile{lot}{\addvspace {10\p@ }}
\newlabel{ch-cv}{{4}{30}{OpenCV module and Detection Algorithms}{chapter.144}{}}
\@writefile{toc}{\contentsline {section}{\numberline {4.1}Motivation}{30}{section.145}}
\@writefile{toc}{\contentsline {section}{\numberline {4.2}System design}{30}{section.146}}
\citation{cv-3}
\citation{cv-4}
\@writefile{lof}{\contentsline {figure}{\numberline {4.1}{\ignorespaces Monitoring System Block Diagram\relax }}{31}{figure.caption.147}}
\newlabel{cv-systemdesign}{{4.1}{31}{Monitoring System Block Diagram\relax }{figure.caption.147}{}}
\@writefile{toc}{\contentsline {section}{\numberline {4.3}Computer Vision Steps}{31}{section.148}}
\@writefile{lof}{\contentsline {figure}{\numberline {4.2}{\ignorespaces CV Common Development Steps\relax }}{31}{figure.caption.149}}
\newlabel{cv-devsteps}{{4.2}{31}{CV Common Development Steps\relax }{figure.caption.149}{}}
\@writefile{toc}{\contentsline {section}{\numberline {4.4}Hardware}{31}{section.150}}
\@writefile{toc}{\contentsline {subsection}{\numberline {4.4.1}Chosen Hardware}{31}{subsection.151}}
\@writefile{lof}{\contentsline {figure}{\numberline {4.3}{\ignorespaces Raspberry Pi 3\relax }}{32}{figure.caption.152}}
\newlabel{cv-rpi3}{{4.3}{32}{Raspberry Pi 3\relax }{figure.caption.152}{}}
\@writefile{lof}{\contentsline {figure}{\numberline {4.4}{\ignorespaces Arducam Module\relax }}{32}{figure.caption.153}}
\newlabel{cv-camera}{{4.4}{32}{Arducam Module\relax }{figure.caption.153}{}}
\@writefile{toc}{\contentsline {subsection}{\numberline {4.4.2}Hardware Specifications}{33}{subsection.154}}
\@writefile{lot}{\contentsline {table}{\numberline {4.1}{\ignorespaces Raspberry Pi 3 Hardware Specifications\relax }}{33}{table.caption.155}}
\@writefile{lot}{\contentsline {table}{\numberline {4.2}{\ignorespaces Arducam Hardware Specifications\relax }}{33}{table.caption.156}}
\@writefile{toc}{\contentsline {section}{\numberline {4.5}Detection Algorithms}{33}{section.157}}
\@writefile{toc}{\contentsline {subsection}{\numberline {4.5.1}Template Matching}{33}{subsection.158}}
\citation{cv-5}
\citation{cv-6}
\citation{cv-7}
\@writefile{toc}{\contentsline {subsection}{\numberline {4.5.2}Contours Detection}{34}{subsection.163}}
\@writefile{toc}{\contentsline {subsection}{\numberline {4.5.3}Haar-Cascade}{34}{subsection.164}}
\citation{cv-7}
\citation{cv-8}
\@writefile{lof}{\contentsline {figure}{\numberline {4.5}{\ignorespaces Types of features in images\relax }}{35}{figure.caption.165}}
\newlabel{cv-features-types}{{4.5}{35}{Types of features in images\relax }{figure.caption.165}{}}
\@writefile{toc}{\contentsline {subsection}{\numberline {4.5.4}Color-based Detection}{35}{subsection.166}}
\citation{cv-8}
\@writefile{lof}{\contentsline {figure}{\numberline {4.6}{\ignorespaces HSV Hue color wheel\relax }}{36}{figure.caption.167}}
\@writefile{lof}{\contentsline {figure}{\numberline {4.7}{\ignorespaces Tracking process diagram\relax }}{36}{figure.caption.168}}
\newlabel{cv-hsv-algo1}{{4.7}{36}{Tracking process diagram\relax }{figure.caption.168}{}}
\citation{cv-9}
\@writefile{lof}{\contentsline {figure}{\numberline {4.8}{\ignorespaces Derived algorithm\relax }}{37}{figure.caption.169}}
\newlabel{cv-hsv-algo2}{{4.8}{37}{Derived algorithm\relax }{figure.caption.169}{}}
\@writefile{toc}{\contentsline {subsection}{\numberline {4.5.5}Convolutional Neural Network (CNN)}{37}{subsection.170}}
\@writefile{lof}{\contentsline {figure}{\numberline {4.9}{\ignorespaces Region-Based Convolution Neural Networks\relax }}{37}{figure.caption.171}}
\newlabel{cv-nn}{{4.9}{37}{Region-Based Convolution Neural Networks\relax }{figure.caption.171}{}}
\citation{cv-11}
\@writefile{toc}{\contentsline {subsection}{\numberline {4.5.6}One Shot Learning}{38}{subsection.172}}
\@writefile{toc}{\contentsline {section}{\numberline {4.6}Using Camera as a Positioning System}{38}{section.173}}
\newlabel{cv-patterns-1}{{4.10a}{39}{version 1\relax }{figure.caption.174}{}}
\newlabel{sub@cv-patterns-1}{{a}{39}{version 1\relax }{figure.caption.174}{}}
\newlabel{cv-patterns-2}{{4.10b}{39}{version 2\relax }{figure.caption.174}{}}
\newlabel{sub@cv-patterns-2}{{b}{39}{version 2\relax }{figure.caption.174}{}}
\newlabel{cv-patterns-3}{{4.10c}{39}{version 3\relax }{figure.caption.174}{}}
\newlabel{sub@cv-patterns-3}{{c}{39}{version 3\relax }{figure.caption.174}{}}
\@writefile{lof}{\contentsline {figure}{\numberline {4.10}{\ignorespaces Patterns\relax }}{39}{figure.caption.174}}
\newlabel{cv-patterns-versions}{{4.10}{39}{Patterns\relax }{figure.caption.174}{}}
\@writefile{lof}{\contentsline {figure}{\numberline {4.11}{\ignorespaces Template matching output\relax }}{39}{figure.caption.185}}
\newlabel{cv-temp-match}{{4.11}{39}{Template matching output\relax }{figure.caption.185}{}}
\citation{cv-10}
\@writefile{lof}{\contentsline {figure}{\numberline {4.12}{\ignorespaces One shot training output\relax }}{43}{figure.caption.230}}
\newlabel{cv-oneshot-out}{{4.12}{43}{One shot training output\relax }{figure.caption.230}{}}
\@writefile{lof}{\contentsline {figure}{\numberline {4.13}{\ignorespaces Contours detection output\relax }}{46}{figure.caption.291}}
\newlabel{cv-contours-out}{{4.13}{46}{Contours detection output\relax }{figure.caption.291}{}}
\@setckpt{Chapters/ch-cv}{
\setcounter{page}{47}
\setcounter{equation}{0}
\setcounter{enumi}{3}
\setcounter{enumii}{0}
\setcounter{enumiii}{0}
\setcounter{enumiv}{0}
\setcounter{footnote}{0}
\setcounter{mpfootnote}{0}
\setcounter{part}{0}
\setcounter{chapter}{4}
\setcounter{section}{6}
\setcounter{subsection}{0}
\setcounter{subsubsection}{0}
\setcounter{paragraph}{0}
\setcounter{subparagraph}{0}
\setcounter{figure}{13}
\setcounter{table}{2}
\setcounter{LT@tables}{0}
\setcounter{LT@chunks}{0}
\setcounter{ContinuedFloat}{0}
\setcounter{float@type}{8}
\setcounter{lstnumber}{35}
\setcounter{subfigure}{0}
\setcounter{subtable}{0}
\setcounter{AM@survey}{0}
\setcounter{Item}{5}
\setcounter{Hfootnote}{2}
\setcounter{bookmark@seq@number}{50}
\setcounter{lstlisting}{0}
\setcounter{section@level}{1}
}
