\relax 
\providecommand\hyper@newdestlabel[2]{}
\@writefile{toc}{\contentsline {chapter}{\numberline {3}Control Strategy}{21}{chapter.100}}
\@writefile{lof}{\addvspace {10\p@ }}
\@writefile{lot}{\addvspace {10\p@ }}
\newlabel{ch-control}{{3}{21}{Control Strategy}{chapter.100}{}}
\@writefile{toc}{\contentsline {section}{\numberline {3.1}Motivation}{21}{section.101}}
\@writefile{toc}{\contentsline {section}{\numberline {3.2}Tracking}{21}{section.104}}
\@writefile{toc}{\contentsline {subsection}{\numberline {3.2.1}Intro}{21}{subsection.105}}
\@writefile{lof}{\contentsline {figure}{\numberline {3.1}{\ignorespaces Arena prototype\relax }}{22}{figure.caption.106}}
\newlabel{arena-proto}{{3.1}{22}{Arena prototype\relax }{figure.caption.106}{}}
\citation{control-1}
\@writefile{lof}{\contentsline {figure}{\numberline {3.2}{\ignorespaces Track points\relax }}{23}{figure.caption.107}}
\newlabel{points}{{3.2}{23}{Track points\relax }{figure.caption.107}{}}
\@writefile{lof}{\contentsline {figure}{\numberline {3.3}{\ignorespaces Moving towards target point\relax }}{23}{figure.caption.108}}
\newlabel{points-target}{{3.3}{23}{Moving towards target point\relax }{figure.caption.108}{}}
\@writefile{toc}{\contentsline {subsection}{\numberline {3.2.2}Tracking methods}{23}{subsection.109}}
\@writefile{toc}{\contentsline {subsubsection}{\numberline {3.2.2.1}Dead reckoning}{23}{subsubsection.110}}
\citation{control-2}
\@writefile{lof}{\contentsline {figure}{\numberline {3.4}{\ignorespaces Dead reckoning tracking\relax }}{24}{figure.caption.111}}
\newlabel{dead-reckoning}{{3.4}{24}{Dead reckoning tracking\relax }{figure.caption.111}{}}
\@writefile{toc}{\contentsline {subsubsection}{\numberline {3.2.2.2}Bresenham\IeC {\textquoteright }s line algorithm}{24}{subsubsection.112}}
\@writefile{lof}{\contentsline {figure}{\numberline {3.5}{\ignorespaces Bresenham\IeC {\textquoteright }s line algorithm\relax }}{25}{figure.caption.113}}
\newlabel{bresenham-line}{{3.5}{25}{Bresenham’s line algorithm\relax }{figure.caption.113}{}}
\@writefile{lof}{\contentsline {figure}{\numberline {3.6}{\ignorespaces Robot motion\relax }}{26}{figure.caption.114}}
\newlabel{control-dir}{{3.6}{26}{Robot motion\relax }{figure.caption.114}{}}
\@writefile{lof}{\contentsline {figure}{\numberline {3.7}{\ignorespaces Robot motion example\relax }}{27}{figure.caption.115}}
\newlabel{control-ex}{{3.7}{27}{Robot motion example\relax }{figure.caption.115}{}}
\@writefile{toc}{\contentsline {section}{\numberline {3.3}Leadership Selection}{28}{section.116}}
\@setckpt{Chapters/ch-control}{
\setcounter{page}{30}
\setcounter{equation}{0}
\setcounter{enumi}{3}
\setcounter{enumii}{0}
\setcounter{enumiii}{0}
\setcounter{enumiv}{0}
\setcounter{footnote}{0}
\setcounter{mpfootnote}{0}
\setcounter{part}{0}
\setcounter{chapter}{3}
\setcounter{section}{3}
\setcounter{subsection}{0}
\setcounter{subsubsection}{0}
\setcounter{paragraph}{0}
\setcounter{subparagraph}{0}
\setcounter{figure}{7}
\setcounter{table}{0}
\setcounter{LT@tables}{0}
\setcounter{LT@chunks}{0}
\setcounter{ContinuedFloat}{0}
\setcounter{float@type}{8}
\setcounter{lstnumber}{24}
\setcounter{subfigure}{0}
\setcounter{subtable}{0}
\setcounter{AM@survey}{0}
\setcounter{Item}{5}
\setcounter{Hfootnote}{2}
\setcounter{bookmark@seq@number}{35}
\setcounter{lstlisting}{0}
\setcounter{section@level}{1}
}
