\relax 
\providecommand\hyper@newdestlabel[2]{}
\citation{SI-SR}
\citation{SI-SR-1}
\citation{SI-SR-2}
\@writefile{toc}{\contentsline {chapter}{\numberline {1}Introduction}{1}{chapter.8}}
\@writefile{lof}{\addvspace {10\p@ }}
\@writefile{lot}{\addvspace {10\p@ }}
\newlabel{ChapterX}{{1}{1}{Introduction}{chapter.8}{}}
\@writefile{toc}{\contentsline {section}{\numberline {1.1}State of the art}{1}{section.9}}
\@writefile{toc}{\contentsline {section}{\numberline {1.2}Swarm Intelligence}{1}{section.10}}
\citation{SI-SR-3}
\citation{SI-SR-4}
\citation{SI-SR-5}
\@writefile{toc}{\contentsline {subsection}{\numberline {1.2.1}Particle Swarm Optimization}{2}{subsection.11}}
\citation{Custom-5-Geenral-Apps}
\citation{Custom-1-Telecommunications}
\citation{Custom-2-Traffic}
\citation{Custom-3-Military}
\citation{Cutsom-4-PSO-Apps}
\citation{Custom-6-FeaturesOfSwarm}
\@writefile{toc}{\contentsline {subsection}{\numberline {1.2.2}Ant Colony Optimization}{3}{subsection.12}}
\@writefile{toc}{\contentsline {subsection}{\numberline {1.2.3}Swarm Intelligence Applications}{3}{subsection.13}}
\citation{SI-SR-7}
\@writefile{toc}{\contentsline {section}{\numberline {1.3}Swarm Robotics}{4}{section.14}}
\@writefile{toc}{\contentsline {subsection}{\numberline {1.3.1}Criteria for Swarm Robotics}{4}{subsection.15}}
\citation{SI-SR-8}
\citation{SI-SR-9}
\citation{SI-SR-10}
\citation{SI-SR-11}
\citation{SI-SR-12}
\citation{SI-SR-13}
\@writefile{toc}{\contentsline {subsection}{\numberline {1.3.2}Advantages to Classical Approaches}{5}{subsection.16}}
\@writefile{toc}{\contentsline {subsection}{\numberline {1.3.3}Swarm Robotics Applications}{5}{subsection.17}}
\citation{I-SAWRM-15}
\citation{I-SAWRM-17}
\citation{I-SWARM-4}
\citation{I-SWARM-1}
\citation{I-SWARM-4}
\citation{I-SAWRM-17}
\citation{I-SAWRM-18}
\citation{I-SAWRM-16}
\citation{I-SAWRM-13}
\citation{I-SAWRM-10}
\citation{I-SAWRM-11}
\citation{I-SAWRM-22}
\citation{I-SAWRM-19}
\citation{I-SAWRM-20}
\citation{I-SAWRM-14}
\citation{I-SAWRM-15}
\citation{I-SAWRM-12}
\@writefile{toc}{\contentsline {section}{\numberline {1.4}Introduction to Swarm}{6}{section.18}}
\citation{SI-SR-14}
\citation{SI-SR-15}
\citation{SI-SR-16}
\citation{SI-SR-17}
\@writefile{toc}{\contentsline {section}{\numberline {1.5}Thesis Organization}{9}{section.19}}
\@setckpt{Chapters/ch-introduction}{
\setcounter{page}{10}
\setcounter{equation}{0}
\setcounter{enumi}{0}
\setcounter{enumii}{0}
\setcounter{enumiii}{0}
\setcounter{enumiv}{0}
\setcounter{footnote}{0}
\setcounter{mpfootnote}{0}
\setcounter{part}{0}
\setcounter{chapter}{1}
\setcounter{section}{5}
\setcounter{subsection}{0}
\setcounter{subsubsection}{0}
\setcounter{paragraph}{0}
\setcounter{subparagraph}{0}
\setcounter{figure}{0}
\setcounter{table}{0}
\setcounter{LT@tables}{0}
\setcounter{LT@chunks}{0}
\setcounter{ContinuedFloat}{0}
\setcounter{float@type}{8}
\setcounter{lstnumber}{1}
\setcounter{subfigure}{0}
\setcounter{subtable}{0}
\setcounter{AM@survey}{0}
\setcounter{Item}{0}
\setcounter{Hfootnote}{2}
\setcounter{bookmark@seq@number}{17}
\setcounter{lstlisting}{0}
\setcounter{section@level}{1}
}
