\relax 
\providecommand\hyper@newdestlabel[2]{}
\@writefile{toc}{\contentsline {chapter}{\numberline {6}Integration Task}{64}{chapter.480}}
\@writefile{lof}{\addvspace {10\p@ }}
\@writefile{lot}{\addvspace {10\p@ }}
\newlabel{ch-integ}{{6}{64}{Integration Task}{chapter.480}{}}
\@writefile{toc}{\contentsline {section}{\numberline {6.1}Motivation}{64}{section.481}}
\@writefile{lof}{\contentsline {figure}{\numberline {6.1}{\ignorespaces Arena\relax }}{64}{figure.caption.482}}
\newlabel{arena}{{6.1}{64}{Arena\relax }{figure.caption.482}{}}
\@writefile{toc}{\contentsline {section}{\numberline {6.2}Main Task "Formation"}{65}{section.483}}
\@writefile{toc}{\contentsline {subsection}{\numberline {6.2.1}Control module}{65}{subsection.484}}
\@writefile{toc}{\contentsline {subsection}{\numberline {6.2.2}CV module}{65}{subsection.485}}
\@writefile{toc}{\contentsline {subsection}{\numberline {6.2.3}Communication module}{65}{subsection.486}}
\@setckpt{Chapters/ch-integ}{
\setcounter{page}{66}
\setcounter{equation}{0}
\setcounter{enumi}{3}
\setcounter{enumii}{0}
\setcounter{enumiii}{0}
\setcounter{enumiv}{0}
\setcounter{footnote}{0}
\setcounter{mpfootnote}{0}
\setcounter{part}{0}
\setcounter{chapter}{6}
\setcounter{section}{2}
\setcounter{subsection}{3}
\setcounter{subsubsection}{0}
\setcounter{paragraph}{0}
\setcounter{subparagraph}{0}
\setcounter{figure}{1}
\setcounter{table}{0}
\setcounter{LT@tables}{0}
\setcounter{LT@chunks}{0}
\setcounter{ContinuedFloat}{0}
\setcounter{float@type}{8}
\setcounter{lstnumber}{28}
\setcounter{subfigure}{0}
\setcounter{subtable}{0}
\setcounter{AM@survey}{0}
\setcounter{Item}{5}
\setcounter{Hfootnote}{2}
\setcounter{bookmark@seq@number}{69}
\setcounter{lstlisting}{0}
\setcounter{section@level}{2}
}
