\relax 
\providecommand\hyper@newdestlabel[2]{}
\@writefile{toc}{\contentsline {chapter}{\numberline {2}Robot}{11}{chapter.20}}
\@writefile{lof}{\addvspace {10\p@ }}
\@writefile{lot}{\addvspace {10\p@ }}
\newlabel{ch-rawbot}{{2}{11}{Robot}{chapter.20}{}}
\@writefile{toc}{\contentsline {section}{\numberline {2.1}Motivation}{11}{section.21}}
\@writefile{lof}{\contentsline {figure}{\numberline {2.1}{\ignorespaces Kilobots\relax }}{11}{figure.caption.22}}
\providecommand*\caption@xref[2]{\@setref\relax\@undefined{#1}}
\newlabel{robot-kilobot}{{2.1}{11}{Kilobots\relax }{figure.caption.22}{}}
\@writefile{lof}{\contentsline {figure}{\numberline {2.2}{\ignorespaces Last year's robot\relax }}{12}{figure.caption.23}}
\newlabel{robots-last-year}{{2.2}{12}{Last year's robot\relax }{figure.caption.23}{}}
\@writefile{toc}{\contentsline {section}{\numberline {2.2}Hardware}{12}{section.24}}
\citation{robot-1}
\newlabel{robots-v21a}{{2.3a}{13}{Rowbot v2.1a\relax }{figure.caption.25}{}}
\newlabel{sub@robots-v21a}{{a}{13}{Rowbot v2.1a\relax }{figure.caption.25}{}}
\newlabel{robots-v21b}{{2.3b}{13}{Rowbot v2.1b\relax }{figure.caption.25}{}}
\newlabel{sub@robots-v21b}{{b}{13}{Rowbot v2.1b\relax }{figure.caption.25}{}}
\@writefile{lof}{\contentsline {figure}{\numberline {2.3}{\ignorespaces Rowbot v2.1a, Rowbot v2.1b\relax }}{13}{figure.caption.25}}
\newlabel{robots-v21a-v21b}{{2.3}{13}{Rowbot v2.1a, Rowbot v2.1b\relax }{figure.caption.25}{}}
\@writefile{lof}{\contentsline {figure}{\numberline {2.4}{\ignorespaces Rowbot v3\relax }}{14}{figure.caption.26}}
\newlabel{robots-v3}{{2.4}{14}{Rowbot v3\relax }{figure.caption.26}{}}
\@writefile{toc}{\contentsline {subsection}{\numberline {2.2.1}Frame}{14}{subsection.27}}
\@writefile{toc}{\contentsline {subsection}{\numberline {2.2.2}PCB Design and Components}{15}{subsection.28}}
\@writefile{lof}{\contentsline {figure}{\numberline {2.5}{\ignorespaces PCB design version 1\relax }}{15}{figure.caption.29}}
\newlabel{pcb-v1}{{2.5}{15}{PCB design version 1\relax }{figure.caption.29}{}}
\@writefile{lof}{\contentsline {figure}{\numberline {2.6}{\ignorespaces PCB design version 2\relax }}{16}{figure.caption.30}}
\newlabel{pcb-v2}{{2.6}{16}{PCB design version 2\relax }{figure.caption.30}{}}
\@writefile{lof}{\contentsline {figure}{\numberline {2.7}{\ignorespaces PCB design version 3\relax }}{17}{figure.caption.31}}
\newlabel{pcb-v3}{{2.7}{17}{PCB design version 3\relax }{figure.caption.31}{}}
\@writefile{toc}{\contentsline {subsection}{\numberline {2.2.3}Batteries}{17}{subsection.32}}
\@writefile{toc}{\contentsline {subsection}{\numberline {2.2.4}Positioning System}{18}{subsection.33}}
\@writefile{toc}{\contentsline {subsection}{\numberline {2.2.5}Sensors}{18}{subsection.34}}
\@writefile{toc}{\contentsline {subsubsection}{\numberline {2.2.5.1}Ultrasonic Sensor}{18}{subsubsection.35}}
\@writefile{toc}{\contentsline {section}{\numberline {2.3}Software}{18}{section.36}}
\@setckpt{Chapters/ch-rawbot}{
\setcounter{page}{21}
\setcounter{equation}{0}
\setcounter{enumi}{0}
\setcounter{enumii}{0}
\setcounter{enumiii}{0}
\setcounter{enumiv}{0}
\setcounter{footnote}{0}
\setcounter{mpfootnote}{0}
\setcounter{part}{0}
\setcounter{chapter}{2}
\setcounter{section}{3}
\setcounter{subsection}{0}
\setcounter{subsubsection}{0}
\setcounter{paragraph}{0}
\setcounter{subparagraph}{0}
\setcounter{figure}{7}
\setcounter{table}{0}
\setcounter{LT@tables}{0}
\setcounter{LT@chunks}{0}
\setcounter{ContinuedFloat}{0}
\setcounter{float@type}{8}
\setcounter{lstnumber}{45}
\setcounter{subfigure}{0}
\setcounter{subtable}{0}
\setcounter{AM@survey}{0}
\setcounter{Item}{0}
\setcounter{Hfootnote}{2}
\setcounter{bookmark@seq@number}{27}
\setcounter{lstlisting}{0}
\setcounter{section@level}{1}
}
