\relax 
\providecommand\hyper@newdestlabel[2]{}
\citation{cv-3}
\citation{cv-4}
\@writefile{toc}{\contentsline {chapter}{\numberline {E}Raspberry Pi3 Model B+ \& Arducam}{77}{appendix.514}}
\@writefile{lof}{\addvspace {10\p@ }}
\@writefile{lot}{\addvspace {10\p@ }}
\newlabel{app-rpi}{{E}{77}{Raspberry Pi3 Model B+ \& Arducam}{appendix.514}{}}
\@writefile{lot}{\contentsline {table}{\numberline {E.1}{\ignorespaces Raspberry Pi 3 Hardware Specifications\relax }}{77}{table.caption.515}}
\@writefile{lot}{\contentsline {table}{\numberline {E.2}{\ignorespaces Arducam Hardware Specifications\relax }}{77}{table.caption.516}}
\@setckpt{Appendices/AppendixE}{
\setcounter{page}{83}
\setcounter{equation}{0}
\setcounter{enumi}{3}
\setcounter{enumii}{0}
\setcounter{enumiii}{0}
\setcounter{enumiv}{0}
\setcounter{footnote}{0}
\setcounter{mpfootnote}{0}
\setcounter{part}{0}
\setcounter{chapter}{5}
\setcounter{section}{0}
\setcounter{subsection}{0}
\setcounter{subsubsection}{0}
\setcounter{paragraph}{0}
\setcounter{subparagraph}{0}
\setcounter{figure}{0}
\setcounter{table}{2}
\setcounter{LT@tables}{0}
\setcounter{LT@chunks}{0}
\setcounter{ContinuedFloat}{0}
\setcounter{float@type}{8}
\setcounter{lstnumber}{28}
\setcounter{subfigure}{0}
\setcounter{subtable}{0}
\setcounter{AM@survey}{0}
\setcounter{Item}{5}
\setcounter{Hfootnote}{2}
\setcounter{bookmark@seq@number}{84}
\setcounter{lstlisting}{0}
\setcounter{section@level}{1}
}
