\relax 
\providecommand\hyper@newdestlabel[2]{}
\@writefile{toc}{\contentsline {chapter}{\numberline {A}Sensors}{66}{appendix.487}}
\@writefile{lof}{\addvspace {10\p@ }}
\@writefile{lot}{\addvspace {10\p@ }}
\newlabel{app-sensors}{{A}{66}{Sensors}{appendix.487}{}}
\@writefile{toc}{\contentsline {section}{\numberline {A.1}Ultrasonic Sensor}{66}{section.488}}
\@writefile{lof}{\contentsline {figure}{\numberline {A.1}{\ignorespaces HC-SR04 Ultrasonic Module\relax }}{66}{figure.caption.489}}
\@writefile{toc}{\contentsline {subsection}{\numberline {A.1.1}Specifications and Description}{66}{subsection.490}}
\@writefile{lot}{\contentsline {table}{\numberline {A.1}{\ignorespaces HC-SR04 Specifications\relax }}{66}{table.caption.491}}
\@writefile{lof}{\contentsline {figure}{\numberline {A.2}{\ignorespaces HC-SR04 Test of performance\relax }}{66}{figure.caption.492}}
\@writefile{toc}{\contentsline {subsection}{\numberline {A.1.2}Theory of Operation}{67}{subsection.493}}
\@writefile{lof}{\contentsline {figure}{\numberline {A.3}{\ignorespaces HC-SR04 Timing Diagram\relax }}{67}{figure.caption.494}}
\@writefile{toc}{\contentsline {subsection}{\numberline {A.1.3}Pins Configuration}{67}{subsection.495}}
\@writefile{lot}{\contentsline {table}{\numberline {A.2}{\ignorespaces HC-SR04 pins configuration\relax }}{67}{table.caption.496}}
\@setckpt{Appendices/AppendixA}{
\setcounter{page}{68}
\setcounter{equation}{0}
\setcounter{enumi}{3}
\setcounter{enumii}{0}
\setcounter{enumiii}{0}
\setcounter{enumiv}{0}
\setcounter{footnote}{0}
\setcounter{mpfootnote}{0}
\setcounter{part}{0}
\setcounter{chapter}{1}
\setcounter{section}{1}
\setcounter{subsection}{3}
\setcounter{subsubsection}{0}
\setcounter{paragraph}{0}
\setcounter{subparagraph}{0}
\setcounter{figure}{3}
\setcounter{table}{2}
\setcounter{LT@tables}{0}
\setcounter{LT@chunks}{0}
\setcounter{ContinuedFloat}{0}
\setcounter{float@type}{8}
\setcounter{lstnumber}{28}
\setcounter{subfigure}{0}
\setcounter{subtable}{0}
\setcounter{AM@survey}{0}
\setcounter{Item}{5}
\setcounter{Hfootnote}{2}
\setcounter{bookmark@seq@number}{74}
\setcounter{lstlisting}{0}
\setcounter{section@level}{2}
}
