\relax 
\providecommand\hyper@newdestlabel[2]{}
\@writefile{toc}{\contentsline {chapter}{\numberline {B}RF Communication Module}{68}{appendix.497}}
\@writefile{lof}{\addvspace {10\p@ }}
\@writefile{lot}{\addvspace {10\p@ }}
\newlabel{app-rf}{{B}{68}{RF Communication Module}{appendix.497}{}}
\@writefile{lof}{\contentsline {figure}{\numberline {B.1}{\ignorespaces nRF24L01 RF Module\relax }}{68}{figure.caption.498}}
\@writefile{toc}{\contentsline {section}{\numberline {B.1}Specifications and Description}{68}{section.499}}
\@writefile{toc}{\contentsline {section}{\numberline {B.2}Theory of Operation}{69}{section.500}}
\@writefile{lof}{\contentsline {figure}{\numberline {B.2}{\ignorespaces Frequency Applications and Allocations in the U.S.\relax }}{70}{figure.caption.501}}
\newlabel{rf-table}{{B.2}{70}{Frequency Applications and Allocations in the U.S.\relax }{figure.caption.501}{}}
\@writefile{toc}{\contentsline {section}{\numberline {B.3}Pins Configuration}{71}{section.502}}
\@writefile{lot}{\contentsline {table}{\numberline {B.1}{\ignorespaces nRF 24L01 Pins configuration\relax }}{71}{table.caption.503}}
\@setckpt{Appendices/AppendixB}{
\setcounter{page}{72}
\setcounter{equation}{0}
\setcounter{enumi}{3}
\setcounter{enumii}{0}
\setcounter{enumiii}{0}
\setcounter{enumiv}{0}
\setcounter{footnote}{0}
\setcounter{mpfootnote}{0}
\setcounter{part}{0}
\setcounter{chapter}{2}
\setcounter{section}{3}
\setcounter{subsection}{0}
\setcounter{subsubsection}{0}
\setcounter{paragraph}{0}
\setcounter{subparagraph}{0}
\setcounter{figure}{2}
\setcounter{table}{1}
\setcounter{LT@tables}{0}
\setcounter{LT@chunks}{0}
\setcounter{ContinuedFloat}{0}
\setcounter{float@type}{8}
\setcounter{lstnumber}{28}
\setcounter{subfigure}{0}
\setcounter{subtable}{0}
\setcounter{AM@survey}{0}
\setcounter{Item}{5}
\setcounter{Hfootnote}{2}
\setcounter{bookmark@seq@number}{78}
\setcounter{lstlisting}{0}
\setcounter{section@level}{1}
}
