\relax 
\providecommand\hyper@newdestlabel[2]{}
\@writefile{toc}{\contentsline {chapter}{\numberline {D}MCU: ATmega328P}{73}{appendix.505}}
\@writefile{lof}{\addvspace {10\p@ }}
\@writefile{lot}{\addvspace {10\p@ }}
\newlabel{app-MCU}{{D}{73}{MCU: ATmega328P}{appendix.505}{}}
\@writefile{lof}{\contentsline {figure}{\numberline {D.1}{\ignorespaces ATmega328P dual in-line package\relax }}{73}{figure.caption.506}}
\@writefile{toc}{\contentsline {section}{\numberline {D.1}Configuration Summary}{74}{section.507}}
\@writefile{lot}{\contentsline {table}{\numberline {D.1}{\ignorespaces ATmega328P Configuration\relax }}{74}{table.caption.508}}
\@writefile{toc}{\contentsline {section}{\numberline {D.2}Block Diagram}{75}{section.509}}
\@writefile{lof}{\contentsline {figure}{\numberline {D.2}{\ignorespaces ATmega328P Block Diagram\relax }}{75}{figure.caption.510}}
\@writefile{toc}{\contentsline {section}{\numberline {D.3}Pin-out}{76}{section.511}}
\@writefile{lof}{\contentsline {figure}{\numberline {D.3}{\ignorespaces ATmega328P Pin-out\relax }}{76}{figure.caption.512}}
\@writefile{lof}{\contentsline {figure}{\numberline {D.4}{\ignorespaces ATmega328P Pin-out Legend\relax }}{76}{figure.caption.513}}
\@setckpt{Appendices/AppendixD}{
\setcounter{page}{77}
\setcounter{equation}{0}
\setcounter{enumi}{3}
\setcounter{enumii}{0}
\setcounter{enumiii}{0}
\setcounter{enumiv}{0}
\setcounter{footnote}{0}
\setcounter{mpfootnote}{0}
\setcounter{part}{0}
\setcounter{chapter}{4}
\setcounter{section}{3}
\setcounter{subsection}{0}
\setcounter{subsubsection}{0}
\setcounter{paragraph}{0}
\setcounter{subparagraph}{0}
\setcounter{figure}{4}
\setcounter{table}{1}
\setcounter{LT@tables}{0}
\setcounter{LT@chunks}{0}
\setcounter{ContinuedFloat}{0}
\setcounter{float@type}{8}
\setcounter{lstnumber}{28}
\setcounter{subfigure}{0}
\setcounter{subtable}{0}
\setcounter{AM@survey}{0}
\setcounter{Item}{5}
\setcounter{Hfootnote}{2}
\setcounter{bookmark@seq@number}{83}
\setcounter{lstlisting}{0}
\setcounter{section@level}{1}
}
